{
    "c38_import_styles": {
        "column": {
            "id": true,
            "StyleCategorySub_Description": true,
            "StyleSeasons_Label": true,
            "StyleColorSecondary_Name": true,
            "StyleColorSecondary_Abbreviation": true,
            "StyleCategory_Description": true,
            "StyleColor_VendorSku": true,
            "StyleColor_VendorColor": true,
            "StyleColor_LaunchDate": true,
            "StyleColor_StyleSkuColor": true,
            "StyleSkuBase": true,
            "StyleBase_Name": true,
            "StyleBase_MSRP": true,
            "StyleBase_LaunchDate": true,
            "StyleBase_StyleSkuCode": true,
            "StyleBase_DefVendorCost": true,
            "StyleBase_StyleSkuBase": true,
            "StyleBase_StyleSkuDesigner": true,
            "StyleCategoryParent_Description": true,
            "Inventory_SKU": true,
            "Inventory_Size": true,
            "StyleColorPrimary_Name": true,
            "StyleColorPrimary_abbreviation": true,
            "StyleDesigner_Description": true,
            "StyleColorPattern_Label": true,
            "StyleBase_VendorDescription": true,
            "StyleColor_VendorCost": true,
            "StyleCategorySub_DefWeight": true,
            "StyleBaseSkuWithColor": true,
            "is_processed": true,
            "created_at": true,
            "is_configurable": true,
            "Is_Exclusive": true,
            "StyleColor_CostAfterDiscount": true,
            "StyleColor_StandardCost": true,
            "Collection": true
        },
        "index": {
            "C38_IMPORT_STYLES_INVENTORY_SKU": true
        },
        "constraint": {
            "PRIMARY": true
        }
    },
    "c38_import_styles_processing_history": {
        "column": {
            "id": true,
            "StyleCategorySub_Description": true,
            "StyleSeasons_Label": true,
            "StyleColorSecondary_Name": true,
            "StyleColorSecondary_Abbreviation": true,
            "StyleCategory_Description": true,
            "StyleColor_VendorSku": true,
            "StyleColor_VendorColor": true,
            "StyleColor_LaunchDate": true,
            "StyleColor_StyleSkuColor": true,
            "StyleSkuBase": true,
            "StyleBase_Name": true,
            "StyleBase_MSRP": true,
            "StyleBase_LaunchDate": true,
            "StyleBase_StyleSkuCode": true,
            "StyleBase_DefVendorCost": true,
            "StyleBase_StyleSkuBase": true,
            "StyleBase_StyleSkuDesigner": true,
            "StyleCategoryParent_Description": true,
            "Inventory_SKU": true,
            "Inventory_Size": true,
            "StyleColorPrimary_Name": true,
            "StyleColorPrimary_abbreviation": true,
            "StyleDesigner_Description": true,
            "StyleColorPattern_Label": true,
            "StyleBase_VendorDescription": true,
            "StyleColor_VendorCost": true,
            "StyleCategorySub_DefWeight": true,
            "StyleBaseSkuWithColor": true,
            "is_processed": true,
            "created_at": true,
            "is_configurable": true,
            "Is_Exclusive": true,
            "StyleColor_CostAfterDiscount": true,
            "StyleColor_StandardCost": true,
            "Collection": true,
            "processed_at": true
        },
        "index": {
            "C38_IMPORT_STYLES_PROCESSING_HISTORY_INVENTORY_SKU": true
        },
        "constraint": {
            "PRIMARY": true
        }
    },
    "c38_import_styles_log": {
        "column": {
            "id": true,
            "type": true,
            "message": true,
            "full_error": true,
            "cron_name": true,
            "product_id": true,
            "created_at": true
        },
        "index": {
            "C38_IMPORT_STYLES_LOG_CREATED_AT": true
        },
        "constraint": {
            "PRIMARY": true
        }
    },
    "c38_import_purchase_orders": {
        "column": {
            "id": true,
            "order_id": true,
            "po_number": true,
            "po_date": true,
            "vendor_name": true,
            "warehouse_name": true,
            "user_name": true,
            "user_email": true,
            "manifest_id": true,
            "manifest_date": true,
            "created_at": true,
            "po_cancel_date": true,
            "updated_at": true,
            "lines_number": true
        },
        "constraint": {
            "PRIMARY": true
        }
    },
    "c38_import_purchase_orders_lines": {
        "column": {
            "id": true,
            "order_id": true,
            "sku": true,
            "size": true,
            "vendor_color": true,
            "qty": true,
            "cost": true,
            "identifier": true,
            "created_at": true,
            "manifest_id": true,
            "updated_at": true
        },
        "index": {
            "C38_IMPORT_PURCHASE_ORDERS_LINES_ORDER_ID": true
        },
        "constraint": {
            "PRIMARY": true,
            "FK_4844460D8FA97805DF536678E57DCFC8": true
        }
    },
    "c38_import_purchase_orders_logs": {
        "column": {
            "id": true,
            "type": true,
            "message": true,
            "stack": true,
            "cron_name": true,
            "created_at": true
        },
        "index": {
            "C38_IMPORT_PURCHASE_ORDERS_LOGS_CRON_NAME": true,
            "C38_IMPORT_PURCHASE_ORDERS_LOGS_CREATED_AT": true
        },
        "constraint": {
            "PRIMARY": true
        }
    }
}